%YAML 1.1
%TAG !u! tag:unity3d.com,2011:
--- !u!21 &2100000
Material:
  serializedVersion: 6
  m_ObjectHideFlags: 0
  m_PrefabParentObject: {fileID: 0}
  m_PrefabInternal: {fileID: 0}
  m_Name: 5cams_lores-top
  m_Shader: {fileID: 4800000, guid: aa36842b3c6a71d42b8fe6b2f262215b, type: 3}
  m_ShaderKeywords: 
  m_LightmapFlags: 5
  m_CustomRenderQueue: -1
  stringTagMap: {}
  m_SavedProperties:
    serializedVersion: 2
    m_TexEnvs:
    - first:
        name: _BumpMap
      second:
        m_Texture: {fileID: 0}
        m_Scale: {x: 1, y: 1}
        m_Offset: {x: 0, y: 0}
    - first:
        name: _Illum
      second:
        m_Texture: {fileID: 0}
        m_Scale: {x: 1, y: 1}
        m_Offset: {x: 0, y: 0}
    - first:
        name: _MainTex
      second:
        m_Texture: {fileID: 8400000, guid: 1625b55b8279cdc48a461a6997c78233, type: 2}
        m_Scale: {x: 1, y: 1}
        m_Offset: {x: 0, y: 0}
    - first:
        name: _Overdraw
      second:
        m_Texture: {fileID: 8400000, guid: 64da81e1dd64d8b40bc9a3a93851a26f, type: 2}
        m_Scale: {x: 1, y: 1}
        m_Offset: {x: 0, y: 0}
    m_Floats:
    - first:
        name: _EmissionLM
      second: 0
    - first:
        name: _LineWidth
      second: 0.1
    m_Colors:
    - first:
        name: _Color
      second: {r: 0.5, g: 0.5, b: 0.5, a: 1}
    - first:
        name: _ConstantColor
      second: {r: 1, g: 1, b: 1, a: 1}
    - first:
        name: _GridColor
      second: {r: 0, g: 0, b: 0, a: 0}
    - first:
        name: _LineColor
      second: {r: 1, g: 1, b: 1, a: 1}
    - first:
        name: _MainColor
      second: {r: 1, g: 1, b: 1, a: 1}
--- !u!1002 &2100001
EditorExtensionImpl:
  serializedVersion: 6
